Blog – Trisha Lal
…
smokers_old <- smokers_old %>%
  mutate(Group = "Smokers")
nonsmokers_new <- nonsmokers_new %>%
  mutate(Group = "Nonsmokers")
combined <- bind_rows(smokers_old, nonsmokers_new)
print(combined)

# A tibble: 7,200 × 4
     SEQN LBDHDD SMQ020 Group  
    <dbl>  <dbl>  <dbl> <chr>  
 1 130378     45      1 Smokers
 2 130379     60      1 Smokers
 3 130386     46      1 Smokers
 4 130391     41      1 Smokers
 5 130396     68      1 Smokers
 6 130406     37      1 Smokers
 7 130407     81      1 Smokers
 8 130408     82      1 Smokers
 9 130415     43      1 Smokers
10 130437     37      1 Smokers
# ℹ 7,190 more rows
…
study2_data <- cholesterol %>%
  inner_join(race, by = "SEQN") %>%
  inner_join(ins, by = "SEQN") %>%
  inner_join(smoking, by = "SEQN") %>%
  inner_join(fhx, by = "SEQN")

print(study2_data)

# A tibble: 6,391 × 6
     SEQN LBXTC Race_Ethnicity     Insurance Smoking_Status Family_History
    <dbl> <dbl> <chr>              <chr>     <chr>          <chr>         
 1 130378   264 Non-Hispanic Asian Yes       Yes            No            
 2 130379   214 Non-Hispanic White Yes       Yes            Yes           
 3 130380   187 Other Hispanic     Yes       No             No            
 4 130386   183 Mexican American   Yes       Yes            No            
 5 130387   203 Non-Hispanic White Yes       No             Yes           
 6 130390   159 Non-Hispanic White No        No             No            
 7 130391   157 Non-Hispanic White Yes       Yes            No            
 8 130392   191 Non-Hispanic White Yes       No             Yes           
 9 130393   179 Non-Hispanic White Yes       No             No            
10 130394   183 Non-Hispanic White Yes       No             No            
# ℹ 6,381 more rows
…
